{
    "name": "MainInputAction",
    "maps": [
        {
            "name": "basicControls",
            "id": "473b3eeb-3d35-4396-b4c8-76efee4ad25b",
            "actions": [
                {
                    "name": "movement",
                    "type": "Value",
                    "id": "7122d6c0-92bd-4dce-a622-4430b83316f8",
                    "expectedControlType": "Vector2",
                    "processors": "",
                    "interactions": "",
                    "initialStateCheck": true
                }
            ],
            "bindings": [
                {
                    "name": "2D Vector",
                    "id": "2e8f7c93-912d-4d08-891f-619f7b0adaf1",
                    "path": "2DVector",
                    "interactions": "",
                    "processors": "",
                    "groups": "",
                    "action": "movement",
                    "isComposite": true,
                    "isPartOfComposite": false
                },
                {
                    "name": "up",
                    "id": "9a37db29-fa8e-4372-b046-d328c80f8c00",
                    "path": "<Keyboard>/w",
                    "interactions": "",
                    "processors": "",
                    "groups": "",
                    "action": "movement",
                    "isComposite": false,
                    "isPartOfComposite": true
                },
                {
                    "name": "down",
                    "id": "dd1c6bc5-ae50-432c-850a-2280f5ad964e",
                    "path": "<Keyboard>/s",
                    "interactions": "",
                    "processors": "",
                    "groups": "",
                    "action": "movement",
                    "isComposite": false,
                    "isPartOfComposite": true
                },
                {
                    "name": "left",
                    "id": "65e65bff-3837-418c-a983-35286ce819b6",
                    "path": "<Keyboard>/a",
                    "interactions": "",
                    "processors": "",
                    "groups": "",
                    "action": "movement",
                    "isComposite": false,
                    "isPartOfComposite": true
                },
                {
                    "name": "right",
                    "id": "395b7108-1856-4078-afb5-ca5bab4d2599",
                    "path": "<Keyboard>/d",
                    "interactions": "",
                    "processors": "",
                    "groups": "",
                    "action": "movement",
                    "isComposite": false,
                    "isPartOfComposite": true
                }
            ]
        }
    ],
    "controlSchemes": []
}